........................
----------------------------------------------------------------------
Ran 24 tests in 1.712s

OK
Name             Stmts   Miss Branch BrPart  Cover   Missing
------------------------------------------------------------
Collatz.py          32      0     14      0   100%
TestCollatz.py      93      0      0      0   100%
------------------------------------------------------------
TOTAL              125      0     14      0   100%
